{
  "type": "service_account",
  "project_id": "zabota-fbb61",
  "private_key_id": "85bd9c78bfd4dadd1938da24a1136ba00bda3cf4",
  "private_key": "-----BEGIN PRIVATE KEY-----\nMIIEvQIBADANBgkqhkiG9w0BAQEFAASCBKcwggSjAgEAAoIBAQDfoWXKdLnl4y15\nY50r276MKqYwd6Hq+8fWvnPw6L+GzGzzrdoNN+IhwP47olzp2rpu0dPYLebZHDlR\n8DVC/vy5VbmNF5BIXaMpnN+PizLmkmQ+nnfawCt/EyD3EWQX21AAXBSL4a6hO/gK\nQLOIod4L3F4ts6Q79V4yqWemVQX66D15MMoOKAk1GjOCEwUyukzxcA04K35PpH2R\nHwgk/AKLffJKYZkJ6o0XBcgDsSYde38aRuHwufkibhtDTic1hwkImA3+NkyV+epP\nkohVfhNbdL0PPWH/OGDvi/NdvtYRdJRHlSwfPbuCC/eGRk/0ZbygZgDmHGIofn7g\nKhKF28x1AgMBAAECggEAIJATo9lqUOn1rwAicdvzUN1MSgYUJYTDB7xqDSa+7hBp\n6Z5OKsWRNQwGmPAJP84R091+z4gjiJ1I+sA+PoKlkbvEoyGkEz17QC3FCdWhiZxr\nDLPYzO6q3BE7fW5irkHzfLyWYKXx3oK+bokW+1Vii+9AfBQf3SaF2welfZKne8Nm\npU8neSO587bTyTQItUVmKmtCzexAPYurMZPspxWJKXBz6sQAkJjdCz7aIvf0fNqC\ngadsRov2P77aKK+Eudkyo4YJL+367STQ6XUYndEt2XyfH1Q7LUBTNUOT8bM+Me+b\nIVybwXx+5ndp/mk3nSqfOzaL2tOGKQGwXoBlE9kv8wKBgQD45K67MSksbW4lkbDp\nh3MMSh/D8omJs6+ZQvTjhFwbceVV5OTpSZcBd+rokNQuT+g+UQOHwY8AyTvlvjKX\nqJXQYb34PIACvGwz3KFTjntc5B6msAw+tlfUtiQwigNjMdIV6NL8XMr+Um6pKDIZ\neHdI2emvgUlCJMtn8NgG6dqsIwKBgQDmBA2cRVTf2CCHv3vHY+GlDUT1oHTZ+Lhm\nmV1lz5jarPENci6+EccZ0iiOtwWrVud3BllGnFhRE2CvFTSYvNoQ45rE3NDPbJUn\n0IakBj3Q2Za7TU160v9SveXUpnZMKaibuBfRWtjGvLn1MlwSOO49iWhoDVsgW59q\nbnGb5c5ChwKBgB1KxKmxOnhJFLqFL/37+/VJT/2+sKMtK5BtCecw76onOGdofexa\nxdPdah8e1Gny65FR9YlnpU3hYRRD0y54H9Gbf0EU1bf8tvtPjwkHbsta6aSSeY5z\n5Vhaa13vEED/XwtHEHW08gsGZpGv8l1/CQLg6pjGLXoEXJAKD1KY+SxjAoGAPHq0\nWXKhbnoVk5v1n+fTXOKwTyVxlB6h3dhVhn+fYWA3waFUSQXDpDZuE5hsFTE0i0dQ\nEhDp5+eAdIjO25pMfERcXYbyIJgcX+uke1xoxJFx4K3iwXjZSZhE5jUexcfuXYN6\nP8HzXc4h1yb2rpPpkKSgnztjyo5MzF9d3+/82+ECgYEA26hzUwwUpIHogc6r9H7f\npRTpKRL2T66+UKXWrvlQ/f0KNGLwWNjezzgbPiRBtw6iBvhreQk3no9xYEknUh0m\nKltioXeCQ7n+/9uSE1AwWG4ctXxTzhQ4wxTsoAtlo//t9WDrldVv77wlv7YRburL\nPBCpHl4d5cVRtd1esfKrzEk=\n-----END PRIVATE KEY-----\n",
  "client_email": "firebase-crashreporting-b720j@zabota-fbb61.iam.gserviceaccount.com",
  "client_id": "101111609649439218475",
  "auth_uri": "https://accounts.google.com/o/oauth2/auth",
  "token_uri": "https://accounts.google.com/o/oauth2/token",
  "auth_provider_x509_cert_url": "https://www.googleapis.com/oauth2/v1/certs",
  "client_x509_cert_url": "https://www.googleapis.com/robot/v1/metadata/x509/firebase-crashreporting-b720j%40zabota-fbb61.iam.gserviceaccount.com"
}
